{"success":true,"data":[{"id":"38a734eb-8840-4c33-a8dd-cd669ae63507","propertyType":"off-plan","name":"COVE EDITION BY IMTIAZ","photos":["https://nbg1.your-objectstorage.com/foryou/properties/7f3a27fe-c2a9-4618-a6bf-30e035c8f9da_full.jpg","https://nbg1.your-objectstorage.com/foryou/properties/faae1a5d-017a-4330-8d99-d9b17a43683e_full.jpg","https://nbg1.your-objectstorage.com/foryou/properties/238ae312-68ee-46f9-89a7-11f7fdfa6c9d_full.jpg","https://nbg1.your-objectstorage.com/foryou/properties/9a09ce83-c021-4b56-894a-ad1ee5270ac2_full.jpg","https://nbg1.your-objectstorage.com/foryou/properties/c04a3c1b-4444-461e-b590-29e506299b1c_full.jpg","https://nbg1.your-objectstorage.com/foryou/properties/ed1577dc-710a-4be9-9b36-c1288d587b87_full.jpg","https://nbg1.your-objectstorage.com/foryou/properties/ceb11133-ad34-433f-a3c5-7256369c735e_full.jpg","https://nbg1.your-objectstorage.com/foryou/properties/e9785315-19ef-435c-8764-a84a702d483a_full.jpg","https://nbg1.your-objectstorage.com/foryou/properties/c4d8c953-a6d6-4b3f-9888-5e70445a8ef5_full.jpg","https://nbg1.your-objectstorage.com/foryou/properties/14e5e798-271d-4d72-bc07-bd4c422d5ef5_full.jpg","https://nbg1.your-objectstorage.com/foryou/properties/63c915f2-4960-4018-9db5-457ac1a3f851_full.jpg","https://nbg1.your-objectstorage.com/foryou/properties/08013c45-7403-4d82-978e-438da3842dc8_full.jpg","https://nbg1.your-objectstorage.com/foryou/properties/cb21d4a5-41d7-4ba6-a160-daf6454036af_full.jpg","https://nbg1.your-objectstorage.com/foryou/properties/7b8f9162-6770-4389-8cb0-deecf68b4f85_full.jpg","https://nbg1.your-objectstorage.com/foryou/properties/d8b398a9-e4ce-4979-bd01-538e77e61567_full.jpg","https://nbg1.your-objectstorage.com/foryou/properties/00b1d4d9-76d2-4be6-b018-b61d90f76320_full.jpg","https://nbg1.your-objectstorage.com/foryou/properties/41fd1a6f-497f-4735-87d1-075d231c2a14_full.jpg","https://nbg1.your-objectstorage.com/foryou/properties/fbff6dbc-1834-400e-8e7b-df45316e2e3f_full.jpg"],"countryId":"4cb49e99-dc24-497d-97aa-6dde42025896","cityId":"191ac941-212a-4136-b305-e38d7e55aea5","areaId":"e9e0ef9f-ed33-440e-aaba-1fe467ee5143","latitude":"25.09272200","longitude":"55.38115500","description":"FOR YOU REAL ESTATE is pleased to present this Studio Apartment in Cove Living Residence by Imtiaz, located in the prestigious DubaiLand Residence Complex, Dubailand.","descriptionRu":"FOR YOU REAL ESTATE рада представить эту студию в Cove Living Residence от Imtiaz, расположенную в престижном DubaiLand Residence Complex, Dubailand — современное жильё в быстро развивающемся районе с удобным доступом к ключевым достопримечательностям и инфраструктуре Дубая.","developerId":"aad3b781-7133-43e0-90f3-50bc23dcb093","priceFrom":"191967.00","bedroomsFrom":1,"bedroomsTo":1,"bathroomsFrom":1,"bathroomsTo":1,"sizeFrom":"39.00","sizeTo":"39.00","paymentPlan":null,"isForYouChoice":true,"price":null,"bedrooms":1,"bathrooms":1,"size":"39.00","createdAt":"2026-01-26T16:04:44.491Z","updatedAt":"2026-01-26T16:04:44.491Z","country":{"id":"4cb49e99-dc24-497d-97aa-6dde42025896","nameEn":"United Arab Emirates","nameRu":"Объединенные Арабские Эмираты","nameAr":"الإمارات العربية المتحدة","code":"AE"},"city":{"id":"191ac941-212a-4136-b305-e38d7e55aea5","countryId":"4cb49e99-dc24-497d-97aa-6dde42025896","nameEn":"Dubai","nameRu":"Дубай","nameAr":"دبي"},"area":"Dubai, Dubai","developer":{"id":"aad3b781-7133-43e0-90f3-50bc23dcb093","name":"Imtiaz","logo":"https://nbg1.your-objectstorage.com/foryou/developers/logos/aad3b781-7133-43e0-90f3-50bc23dcb093/47441e5b-cc7c-4662-93ed-326afa609fc6.png","description":"См. описание выше для Imtiaz. Бренд известен своим бутиковым подходом к строительству и вниманием к дизайну интерьеров.","images":["{https://files.alnair.ae/uploads/2024/12/a3/07/a30749705ecf32ffdb546fe98a80faf3.png","https://nbg1.your-objectstorage.com/foryou/developers/photos/aad3b781-7133-43e0-90f3-50bc23dcb093/c8b97c90-9575-4e25-88af-d5fc2a04bcf4.jpg","https://nbg1.your-objectstorage.com/foryou/developers/photos/aad3b781-7133-43e0-90f3-50bc23dcb093/2fdffec9-59f8-4981-a2e1-50183e8739fe.jpg","https://nbg1.your-objectstorage.com/foryou/developers/photos/aad3b781-7133-43e0-90f3-50bc23dcb093/7e860624-e580-499c-af46-a19b41abc124.jpg","https://nbg1.your-objectstorage.com/foryou/developers/photos/aad3b781-7133-43e0-90f3-50bc23dcb093/fcf37231-cef3-47d3-aad7-09bc57efc64f.jpg","https://nbg1.your-objectstorage.com/foryou/developers/photos/aad3b781-7133-43e0-90f3-50bc23dcb093/7547bd34-3dbf-4999-9ff0-f5d1f42c6e9c.jpg","https://nbg1.your-objectstorage.com/foryou/developers/photos/aad3b781-7133-43e0-90f3-50bc23dcb093/62d5fb9e-7284-44e4-a301-fc852da33e9d.jpg","https://nbg1.your-objectstorage.com/foryou/developers/photos/aad3b781-7133-43e0-90f3-50bc23dcb093/254a726a-1262-4b80-a82e-87c88888fec6.jpg","https://nbg1.your-objectstorage.com/foryou/developers/photos/aad3b781-7133-43e0-90f3-50bc23dcb093/6df87aa2-fd1f-4352-b1f3-98bc2352352a.jpg","https://nbg1.your-objectstorage.com/foryou/developers/photos/aad3b781-7133-43e0-90f3-50bc23dcb093/630e47dd-8f91-4ff3-8de8-18dc9136513a.jpg","https://nbg1.your-objectstorage.com/foryou/developers/photos/aad3b781-7133-43e0-90f3-50bc23dcb093/3000c58d-0979-4a31-9bd0-6fe03051f991.jpg","https://nbg1.your-objectstorage.com/foryou/developers/photos/aad3b781-7133-43e0-90f3-50bc23dcb093/def54cf7-9b64-4126-b037-a91daf835699.jpg","https://nbg1.your-objectstorage.com/foryou/developers/photos/aad3b781-7133-43e0-90f3-50bc23dcb093/76363615-3e52-452d-87e9-23e4bc283026.jpg","https://nbg1.your-objectstorage.com/foryou/developers/photos/aad3b781-7133-43e0-90f3-50bc23dcb093/fef473c6-8c82-4e4d-8202-3a23e3fabf3b.jpg","https://nbg1.your-objectstorage.com/foryou/developers/photos/aad3b781-7133-43e0-90f3-50bc23dcb093/1f15b717-018e-46df-a806-2f3c230e9212.jpg","https://nbg1.your-objectstorage.com/foryou/developers/photos/aad3b781-7133-43e0-90f3-50bc23dcb093/b26cddee-1ecc-437b-bd59-0b5fdc344fd6.jpg","https://nbg1.your-objectstorage.com/foryou/developers/photos/aad3b781-7133-43e0-90f3-50bc23dcb093/1c8402a4-ce09-44fa-be7e-f8f86eb3e97a.jpg","https://nbg1.your-objectstorage.com/foryou/developers/photos/aad3b781-7133-43e0-90f3-50bc23dcb093/2fa3ce8c-1115-4322-ad17-84ac90ad3d59.jpg","https://nbg1.your-objectstorage.com/foryou/developers/photos/aad3b781-7133-43e0-90f3-50bc23dcb093/19ba0ea5-eb4c-4b91-a9b1-2da5919690a1.jpg","https://nbg1.your-objectstorage.com/foryou/developers/photos/aad3b781-7133-43e0-90f3-50bc23dcb093/7a63f1a4-adee-409c-bae9-9cf76e4de3cf.jpg","https://nbg1.your-objectstorage.com/foryou/developers/photos/aad3b781-7133-43e0-90f3-50bc23dcb093/3bf819a7-e38b-44b9-babc-44d9b7d0c7b4.jpg","https://nbg1.your-objectstorage.com/foryou/developers/photos/aad3b781-7133-43e0-90f3-50bc23dcb093/c68838ea-f6c3-47ff-9296-6a7c6dec8d21.jpg","https://nbg1.your-objectstorage.com/foryou/developers/photos/aad3b781-7133-43e0-90f3-50bc23dcb093/48619f9a-c87d-4b8d-84d0-c52e08b88cab.jpg","https://nbg1.your-objectstorage.com/foryou/developers/photos/aad3b781-7133-43e0-90f3-50bc23dcb093/455dea8a-ff56-4756-a9e1-44fa445560a5.jpg","https://nbg1.your-objectstorage.com/foryou/developers/photos/aad3b781-7133-43e0-90f3-50bc23dcb093/e6cd965b-e070-46bd-a005-bfe357bf6175.jpg","https://nbg1.your-objectstorage.com/foryou/developers/photos/aad3b781-7133-43e0-90f3-50bc23dcb093/276e8b6c-1eec-4b34-9b6a-6f7e18aa4dc1.jpg","https://nbg1.your-objectstorage.com/foryou/developers/photos/aad3b781-7133-43e0-90f3-50bc23dcb093/656a3199-d834-41fe-b828-28b3c778f2f7.jpg","https://nbg1.your-objectstorage.com/foryou/developers/photos/aad3b781-7133-43e0-90f3-50bc23dcb093/0d9178ca-4878-450a-b833-79a27f9cafbc.jpg","https://nbg1.your-objectstorage.com/foryou/developers/photos/aad3b781-7133-43e0-90f3-50bc23dcb093/12e7fd75-b15c-48c8-98f6-0dd3e5b2e64f.jpg","https://nbg1.your-objectstorage.com/foryou/developers/photos/aad3b781-7133-43e0-90f3-50bc23dcb093/dde74948-00b9-4c0c-90e8-6bc1ed34da7f.jpg","https://nbg1.your-objectstorage.com/foryou/developers/photos/aad3b781-7133-43e0-90f3-50bc23dcb093/53b03eea-7fb3-45ac-aa38-165c385d1335.jpg","https://nbg1.your-objectstorage.com/foryou/developers/photos/aad3b781-7133-43e0-90f3-50bc23dcb093/b57d2b2b-acc1-4eab-85a2-c7d58923f675.jpg","https://nbg1.your-objectstorage.com/foryou/developers/photos/aad3b781-7133-43e0-90f3-50bc23dcb093/b7242463-5113-4c53-b69d-46db33510263.jpg","https://nbg1.your-objectstorage.com/foryou/developers/photos/aad3b781-7133-43e0-90f3-50bc23dcb093/725f6df5-0132-46e0-bf27-f43be11a9219.jpg","https://nbg1.your-objectstorage.com/foryou/developers/photos/aad3b781-7133-43e0-90f3-50bc23dcb093/d65b2928-d878-4104-b746-f25e1b491c1c.jpg","https://nbg1.your-objectstorage.com/foryou/developers/photos/aad3b781-7133-43e0-90f3-50bc23dcb093/c0ab1af4-3479-48e1-ba6a-22f636f742e0.jpg","https://files.alnair.ae/uploads/gallery_photo/2024/10/2f/d0/2fd0525551f26aa2d5b6989b09d94831.jpg}"],"createdAt":"2025-12-11T20:37:15.971Z"},"facilities":[],"units":[],"priceAED":null,"priceFromAED":704519,"sizeSqft":420,"images":[{"small":"https://nbg1.your-objectstorage.com/foryou/properties/7f3a27fe-c2a9-4618-a6bf-30e035c8f9da_small.jpg","full":"https://nbg1.your-objectstorage.com/foryou/properties/7f3a27fe-c2a9-4618-a6bf-30e035c8f9da_full.jpg"},{"small":"https://nbg1.your-objectstorage.com/foryou/properties/faae1a5d-017a-4330-8d99-d9b17a43683e_small.jpg","full":"https://nbg1.your-objectstorage.com/foryou/properties/faae1a5d-017a-4330-8d99-d9b17a43683e_full.jpg"},{"small":"https://nbg1.your-objectstorage.com/foryou/properties/238ae312-68ee-46f9-89a7-11f7fdfa6c9d_small.jpg","full":"https://nbg1.your-objectstorage.com/foryou/properties/238ae312-68ee-46f9-89a7-11f7fdfa6c9d_full.jpg"},{"small":"https://nbg1.your-objectstorage.com/foryou/properties/9a09ce83-c021-4b56-894a-ad1ee5270ac2_small.jpg","full":"https://nbg1.your-objectstorage.com/foryou/properties/9a09ce83-c021-4b56-894a-ad1ee5270ac2_full.jpg"},{"small":"https://nbg1.your-objectstorage.com/foryou/properties/c04a3c1b-4444-461e-b590-29e506299b1c_small.jpg","full":"https://nbg1.your-objectstorage.com/foryou/properties/c04a3c1b-4444-461e-b590-29e506299b1c_full.jpg"},{"small":"https://nbg1.your-objectstorage.com/foryou/properties/ed1577dc-710a-4be9-9b36-c1288d587b87_small.jpg","full":"https://nbg1.your-objectstorage.com/foryou/properties/ed1577dc-710a-4be9-9b36-c1288d587b87_full.jpg"},{"small":"https://nbg1.your-objectstorage.com/foryou/properties/ceb11133-ad34-433f-a3c5-7256369c735e_small.jpg","full":"https://nbg1.your-objectstorage.com/foryou/properties/ceb11133-ad34-433f-a3c5-7256369c735e_full.jpg"},{"small":"https://nbg1.your-objectstorage.com/foryou/properties/e9785315-19ef-435c-8764-a84a702d483a_small.jpg","full":"https://nbg1.your-objectstorage.com/foryou/properties/e9785315-19ef-435c-8764-a84a702d483a_full.jpg"},{"small":"https://nbg1.your-objectstorage.com/foryou/properties/c4d8c953-a6d6-4b3f-9888-5e70445a8ef5_small.jpg","full":"https://nbg1.your-objectstorage.com/foryou/properties/c4d8c953-a6d6-4b3f-9888-5e70445a8ef5_full.jpg"},{"small":"https://nbg1.your-objectstorage.com/foryou/properties/14e5e798-271d-4d72-bc07-bd4c422d5ef5_small.jpg","full":"https://nbg1.your-objectstorage.com/foryou/properties/14e5e798-271d-4d72-bc07-bd4c422d5ef5_full.jpg"},{"small":"https://nbg1.your-objectstorage.com/foryou/properties/63c915f2-4960-4018-9db5-457ac1a3f851_small.jpg","full":"https://nbg1.your-objectstorage.com/foryou/properties/63c915f2-4960-4018-9db5-457ac1a3f851_full.jpg"},{"small":"https://nbg1.your-objectstorage.com/foryou/properties/08013c45-7403-4d82-978e-438da3842dc8_small.jpg","full":"https://nbg1.your-objectstorage.com/foryou/properties/08013c45-7403-4d82-978e-438da3842dc8_full.jpg"},{"small":"https://nbg1.your-objectstorage.com/foryou/properties/cb21d4a5-41d7-4ba6-a160-daf6454036af_small.jpg","full":"https://nbg1.your-objectstorage.com/foryou/properties/cb21d4a5-41d7-4ba6-a160-daf6454036af_full.jpg"},{"small":"https://nbg1.your-objectstorage.com/foryou/properties/7b8f9162-6770-4389-8cb0-deecf68b4f85_small.jpg","full":"https://nbg1.your-objectstorage.com/foryou/properties/7b8f9162-6770-4389-8cb0-deecf68b4f85_full.jpg"},{"small":"https://nbg1.your-objectstorage.com/foryou/properties/d8b398a9-e4ce-4979-bd01-538e77e61567_small.jpg","full":"https://nbg1.your-objectstorage.com/foryou/properties/d8b398a9-e4ce-4979-bd01-538e77e61567_full.jpg"},{"small":"https://nbg1.your-objectstorage.com/foryou/properties/00b1d4d9-76d2-4be6-b018-b61d90f76320_small.jpg","full":"https://nbg1.your-objectstorage.com/foryou/properties/00b1d4d9-76d2-4be6-b018-b61d90f76320_full.jpg"},{"small":"https://nbg1.your-objectstorage.com/foryou/properties/41fd1a6f-497f-4735-87d1-075d231c2a14_small.jpg","full":"https://nbg1.your-objectstorage.com/foryou/properties/41fd1a6f-497f-4735-87d1-075d231c2a14_full.jpg"},{"small":"https://nbg1.your-objectstorage.com/foryou/properties/fbff6dbc-1834-400e-8e7b-df45316e2e3f_small.jpg","full":"https://nbg1.your-objectstorage.com/foryou/properties/fbff6dbc-1834-400e-8e7b-df45316e2e3f_full.jpg"}],"sizeToSqft":420,"sizeFromSqft":420}],"pagination":{"total":1319,"page":1,"limit":1,"totalPages":1319}}