{"success":true,"data":[{"id":"ec9afdbd-eb09-4eb3-8403-7ae168ff1db8","propertyType":"secondary","name":"Payment Plan | Discounts Available | Spacious","photos":[],"countryId":"4cb49e99-dc24-497d-97aa-6dde42025896","cityId":"191ac941-212a-4136-b305-e38d7e55aea5","areaId":"f79f3487-68d6-4665-81db-1f153fa2d74c","latitude":"25.05495071","longitude":"55.19380569","description":"ĀYA Properties introduces this luxurious 1 bedroom apartment in Volga Tower - JVT. \n\nNestled in the heart of Jumeirah Village Triangle, Volga Tower is a symbol of modern elegance, blending contemporary design with refined luxury. Each fully furnished apartment is crafted for comfort, featuring spacious layouts, high-end finishes, and private balcony pools that offer a serene escape above the city.\n\nFeatures:\n\n- 1 Bedroom\n- 2 Bathrooms\n- 783.61 Sq. ft\n- Fully Furnished\n- Modern Layout\n- AED 1,537,448 / CASH PAYMENT\n- Payment Plan Available\n\n* Prices are subject to discount\n\nWith its prime location, residents enjoy seamless access to Dubai’s top landmarks, shopping hubs, and entertainment destinations. Volga Tower isn’t just a home—it’s a lifestyle of sophistication and comfort, redefining urban luxury.\n\nFor further details or to arrange a viewing appointment please contact Sleiman Sayegh on +971 50 209 1237. ","descriptionRu":null,"developerId":null,"priceFrom":null,"bedroomsFrom":null,"bedroomsTo":null,"bathroomsFrom":null,"bathroomsTo":null,"sizeFrom":null,"sizeTo":null,"paymentPlan":null,"isForYouChoice":false,"projectedRoi":null,"isInvestorFeatured":false,"commission":null,"plannedCompletionAt":null,"price":"418923.16","bedrooms":1,"bathrooms":2,"size":"72.74","createdAt":"2026-01-16T16:29:38.510Z","updatedAt":"2026-01-16T16:29:38.510Z","country":{"id":"4cb49e99-dc24-497d-97aa-6dde42025896","nameEn":"United Arab Emirates","nameRu":"Объединенные Арабские Эмираты","nameAr":"الإمارات العربية المتحدة","code":"AE"},"city":{"id":"191ac941-212a-4136-b305-e38d7e55aea5","countryId":"4cb49e99-dc24-497d-97aa-6dde42025896","nameEn":"Dubai","nameRu":"Дубай","nameAr":"دبي"},"area":{"id":"f79f3487-68d6-4665-81db-1f153fa2d74c","cityId":"191ac941-212a-4136-b305-e38d7e55aea5","nameEn":"Dubai, Jumeirah Village Triangle","nameRu":"Dubai, Jumeirah Village Triangle","nameAr":"Dubai, Jumeirah Village Triangle","description":null,"descriptionRu":null,"infrastructure":null,"images":null,"isActive":true,"mainImage":null,"slug":null},"developer":null,"facilities":[{"id":"1a90b564-56a2-4731-92d4-fe7fb39703b3","nameEn":"Gym","nameRu":"Gym","nameAr":"Gym","iconName":"checkmark-circle","createdAt":"2025-12-11T21:11:30.038Z"},{"id":"3106cac9-4ff9-460e-be20-a7ee2fe938a1","nameEn":"Lobby","nameRu":"Lobby","nameAr":"Lobby","iconName":"checkmark-circle","createdAt":"2025-12-11T21:11:29.954Z"},{"id":"72e0be9b-8a07-4a5d-9fc1-590d4d5cc505","nameEn":"Central A/C","nameRu":"Central A/C","nameAr":"Central A/C","iconName":"checkmark-circle","createdAt":"2025-12-11T21:11:29.904Z"},{"id":"7b4bee09-88ab-445a-b3f2-a50061f714aa","nameEn":"Balcony","nameRu":"Balcony","nameAr":"Balcony","iconName":"checkmark-circle","createdAt":"2025-12-11T21:11:29.915Z"},{"id":"7e220aa5-9d2a-46f8-a771-ae836979afb5","nameEn":"Swimming Pool","nameRu":"Swimming Pool","nameAr":"Swimming Pool","iconName":"checkmark-circle","createdAt":"2025-12-11T21:11:29.920Z"},{"id":"c356bceb-5187-4924-8ea5-c557834a6264","nameEn":"24/7 Security","nameRu":"24/7 Security","nameAr":"24/7 Security","iconName":"checkmark-circle","createdAt":"2025-12-11T21:11:29.929Z"},{"id":"ed436c7e-9cee-44d9-ac39-6f64a3eb139b","nameEn":"Kids Play Area","nameRu":"Kids Play Area","nameAr":"Kids Play Area","iconName":"checkmark-circle","createdAt":"2025-12-11T21:11:30.050Z"},{"id":"edf6be2d-c7c5-49d1-b843-d0fc9e3dde17","nameEn":"Parking","nameRu":"Parking","nameAr":"Parking","iconName":"checkmark-circle","createdAt":"2025-12-11T21:11:29.934Z"}],"units":[],"priceAED":1537448,"priceFromAED":null,"sizeSqft":783,"images":[],"sizeToSqft":null,"sizeFromSqft":null}],"pagination":{"total":23173,"page":1,"limit":1,"totalPages":23173}}